{
    "SURVEY": {
        "ACTIONS_DEFF": {
            "DO_CREATE": {
                "NAME": "DO_CREATE",
                "TO_STATUS": "PENDING_SURVEY",
                "DP_NAME": "app.ticket.DO_CREATE",
                "MEMO_ACTION": "ISSUE",
                "HIDDEN": true,
                "SENCE": "N"
            },
            "DO_DISCARD": {
                "NAME": "DO_DISCARD",
                "TO_STATUS": "CANCELED",
                "DP_NAME": "app.ticket.DO_DISCARD",
                "MEMO_ACTION": "",
                "HIDDEN": true,
                "SENCE": "-VE"
            },
            "DO_SUBMIT_SURVEY": {
                "NAME": "DO_SUBMIT_SURVEY",
                "TO_STATUS": "PENDING_APPROVAL",
                "DP_NAME": "app.ticket.DO_SUBMIT_SURVEY",
                "MEMO_ACTION": "COMMENT",
                "SENCE": "+VE"
            },
            "DO_ON_HOLD": {
                "NAME": "DO_ON_HOLD",
                "TO_STATUS": "INCORRECT_INFO",
                "DP_NAME": "app.ticket.DO_ON_HOLD",
                "MEMO_ACTION": "REPLY",
                "SENCE": "-VE"
            },
            "DO_APPROVE": {
                "NAME": "DO_APPROVE",
                "TO_STATUS": "APPROVED",
                "DP_NAME": "app.ticket.DO_APPROVE",
                "MEMO_ACTION": "COMMENT",
                "SENCE": "+VE"
            },
            "DO_REJECT": {
                "NAME": "DO_REJECT",
                "TO_STATUS": "PENDING_SURVEY",
                "DP_NAME": "app.ticket.DO_REJECT",
                "MEMO_ACTION": "COMMENT",
                "SENCE": "-VE",
                "REVERT_TO": "DO_SUBMIT_SURVEY"
            },
            "DO_MARK_COMPLETE": {
                "NAME": "DO_MARK_COMPLETE",
                "TO_STATUS": "COMPLETED",
                "DP_NAME": "app.ticket.DO_MARK_COMPLETE",
                "MEMO_ACTION": "REPLY",
                "SENCE": "+VE"
            },
            "DO_EDIT": {
                "NAME": "DO_EDIT",
                "TO_STATUS": "PENDING_SURVEY",
                "DP_NAME": "app.ticket.DO_EDIT",
                "MEMO_ACTION": "ISSUE",
                "SENCE": "N"
            }
        },
        "STATUS_MAP": {
            "NEW": {
                "NAME": "NEW",
                "DP_NAME": "app.ticket.NEW",
                "LEVEL": 0,
                "ACTIONS": [
                    "DO_CREATE",
                    "DO_DISCARD"
                ],
                "OBJECT_ACTION": {
                    "PRIO_CHANGE": true,
                    "ASSIGN": false,
                    "DUE_DATE": false,
                    "TAGS": true,
                    "REQUESTOR": true,
                    "PROPERTY": true
                }
            },
            "PENDING_SURVEY": {
                "NAME": "PENDING_SURVEY",
                "DP_NAME": "app.ticket.PENDING_SURVEY",
                "LEVEL": 1,
                "ACTIONS": [
                    "DO_SUBMIT_SURVEY",
                    "DO_ON_HOLD"
                ],
                "OBJECT_ACTION": {
                    "PRIO_CHANGE": true,
                    "ASSIGN": true,
                    "DUE_DATE": false,
                    "TAGS": true,
                    "REQUESTOR": false,
                    "PROPERTY": true
                }
            },
            "PENDING_APPROVAL": {
                "NAME": "PENDING_APPROVAL",
                "DP_NAME": "app.ticket.PENDING_APPROVAL",
                "LEVEL": 2,
                "ACTIONS": [
                    "DO_APPROVE",
                    "DO_REJECT"
                ],
                "OBJECT_ACTION": {
                    "PRIO_CHANGE": false,
                    "ASSIGN": true,
                    "DUE_DATE": false,
                    "TAGS": true,
                    "REQUESTOR": false,
                    "PROPERTY": false
                }
            },
            "APPROVED": {
                "NAME": "APPROVED",
                "DP_NAME": "app.ticket.APPROVED",
                "LEVEL": 3,
                "ACTIONS": [
                    "DO_MARK_COMPLETE"
                ],
                "OBJECT_ACTION": {
                    "PRIO_CHANGE": false,
                    "ASSIGN": false,
                    "DUE_DATE": false,
                    "TAGS": true,
                    "REQUESTOR": false,
                    "PROPERTY": false
                }
            },
            "ON_HOLD": {
                "NAME": "ON_HOLD",
                "DP_NAME": "app.ticket.ON_HOLD",
                "LEVEL": -1,
                "ACTIONS": [
                    "DO_EDIT"
                ],
                "OBJECT_ACTION": {
                    "PRIO_CHANGE": true,
                    "ASSIGN": false,
                    "DUE_DATE": false,
                    "TAGS": true,
                    "REQUESTOR": true,
                    "PROPERTY": true
                }
            },
            "INCORRECT_INFO": {
                "NAME": "INCORRECT_INFO",
                "DP_NAME": "app.ticket.INCORRECT_INFO",
                "LEVEL": -1,
                "ACTIONS": [
                    "DO_EDIT"
                ],
                "OBJECT_ACTION": {
                    "PRIO_CHANGE": true,
                    "ASSIGN": false,
                    "DUE_DATE": false,
                    "TAGS": true,
                    "REQUESTOR": true,
                    "PROPERTY": true
                }
            },
            "COMPLETED": {
                "NAME": "COMPLETED",
                "DP_NAME": "app.ticket.COMPLETED",
                "LEVEL": 4,
                "ACTIONS": [],
                "OBJECT_ACTION": {
                    "PRIO_CHANGE": false,
                    "ASSIGN": false,
                    "DUE_DATE": false,
                    "TAGS": true,
                    "REQUESTOR": false,
                    "PROPERTY": false
                }
            },
            "CANCELED": {
                "NAME": "CANCELED",
                "DP_NAME": "app.ticket.CANCELED",
                "LEVEL": -2,
                "ACTIONS": [],
                "OBJECT_ACTION": {
                    "PRIO_CHANGE": false,
                    "ASSIGN": false,
                    "DUE_DATE": false,
                    "TAGS": false,
                    "REQUESTOR": false,
                    "PROPERTY": false
                }
            }
        }
    },
    "COMPLAIN": {
        "ACTIONS_DEFF": {
            "DO_CREATE": {
                "NAME": "DO_CREATE",
                "TO_STATUS": "NEW",
                "DP_NAME": "app.ticket.DO_CREATE",
                "MEMO_ACTION": "ISSUE",
                "HIDDEN": true,
                "SENCE": "N"
            },
            "DO_PROCESS": {
                "NAME": "DO_PROCESS",
                "TO_STATUS": "IN_PROGRESS",
                "DP_NAME": "app.ticket.DO_PROCESS",
                "MEMO_ACTION": "COMMENT",
                "SENCE": "N"
            },
            "DO_REJECT": {
                "NAME": "DO_REJECT",
                "TO_STATUS": "REJECT",
                "DP_NAME": "app.ticket.DO_REJECT",
                "MEMO_ACTION": "REPLY",
                "SENCE": "-VE"
            },
            "DO_COMPLETE": {
                "NAME": "DO_COMPLETE",
                "TO_STATUS": "COMPLETED",
                "DP_NAME": "app.ticket.DO_MARK_COMPLETE",
                "MEMO_ACTION": "REPLY",
                "SENCE": "+VE"
            }
        },
        "STATUS_MAP": {
            "NEW": {
                "NAME": "NEW",
                "DP_NAME": "app.ticket.NEW",
                "LEVEL": 0,
                "ACTIONS": [
                    "DO_PROCESS"
                ],
                "OBJECT_ACTION": {
                    "PRIO_CHANGE": true,
                    "ASSIGN": false,
                    "DUE_DATE": false,
                    "TAGS": true,
                    "REQUESTOR": true,
                    "PROPERTY": true
                }
            },
            "IN_PROGRESS": {
                "NAME": "IN_PROGRESS",
                "DP_NAME": "app.ticket.IN_PROGRESS",
                "LEVEL": 1,
                "ACTIONS": [
                    "DO_REJECT",
                    "DO_COMPLETE"
                ],
                "OBJECT_ACTION": {
                    "PRIO_CHANGE": true,
                    "ASSIGN": true,
                    "DUE_DATE": true,
                    "TAGS": true,
                    "REQUESTOR": true,
                    "PROPERTY": true
                }
            },
            "REJECT": {
                "NAME": "REJECT",
                "DP_NAME": "app.ticket.REJECT",
                "LEVEL": 3,
                "ACTIONS": [],
                "OBJECT_ACTION": {
                    "PRIO_CHANGE": false,
                    "ASSIGN": false,
                    "DUE_DATE": false,
                    "TAGS": false,
                    "REQUESTOR": false,
                    "PROPERTY": false
                }
            },
            "COMPLETED": {
                "NAME": "COMPLETED",
                "DP_NAME": "app.ticket.COMPLETED",
                "LEVEL": 4,
                "ACTIONS": [],
                "OBJECT_ACTION": {
                    "PRIO_CHANGE": false,
                    "ASSIGN": false,
                    "DUE_DATE": false,
                    "TAGS": true,
                    "REQUESTOR": false,
                    "PROPERTY": false
                }
            }
        }
    }
}