{
    "domain": "samadhaana",
    "dbUrl_prod": "mongodb://admin:W31c0m3123@ds121190.mlab.com:21190/",
    "dbUrl": "mongodb://localhost:27017/",
    "upload_path_local":"C:/Users/I326482/Desktop/DevNull",
    "upload_path":"/home/uat-samadhana/upload"
}